{"nacl-lucid_64-newlib-x86_32-pnacl-spec/spec2k/compiletime_ammp/pnacl_translator.opt.x8632": {"reva": 11142, "revb": 11143, "type": "absolute", "better": "lower", "improve": 1.254, "regress": 1.40175, "sha1": "84bd77f6"},
 "nacl-lucid_64-newlib-x86_32-pnacl-spec/spec2k/compiletime_ammp/pnacl_translator_fast.opt.x8632": {"reva": 11142, "revb": 11143, "type": "absolute", "better": "lower", "improve": 0.46075, "regress": 0.525, "sha1": "df7c8646"},
 "nacl-lucid_64-newlib-x86_32-pnacl-spec/spec2k/compiletime_art/pnacl_translator.opt.x8632": {"reva": 11142, "revb": 11143, "type": "absolute", "better": "lower", "improve": 0.7125, "regress": 0.79275, "sha1": "deb7dc97"},
 "nacl-lucid_64-newlib-x86_32-pnacl-spec/spec2k/compiletime_art/pnacl_translator_fast.opt.x8632": {"reva": 11142, "revb": 11143, "type": "absolute", "better": "lower", "improve": 0.31825, "regress": 0.35175, "sha1": "51f046b2"},
 "nacl-lucid_64-newlib-x86_32-pnacl-spec/spec2k/compiletime_bzip2/pnacl_translator.opt.x8632": {"reva": 11142, "revb": 11143, "type": "absolute", "better": "lower", "improve": 0.589, "regress": 0.651, "sha1": "5a5fc00d"},
 "nacl-lucid_64-newlib-x86_32-pnacl-spec/spec2k/compiletime_bzip2/pnacl_translator_fast.opt.x8632": {"reva": 11142, "revb": 11143, "type": "absolute", "better": "lower", "improve": 0.28025, "regress": 0.3255, "sha1": "7d2699e5"},
 "nacl-lucid_64-newlib-x86_32-pnacl-spec/spec2k/compiletime_crafty/pnacl_translator.opt.x8632": {"reva": 11142, "revb": 11143, "type": "absolute", "better": "lower", "improve": 1.49625, "regress": 1.66425, "sha1": "7d613d5c"},
 "nacl-lucid_64-newlib-x86_32-pnacl-spec/spec2k/compiletime_crafty/pnacl_translator_fast.opt.x8632": {"reva": 11142, "revb": 11143, "type": "absolute", "better": "lower", "improve": 0.66975, "regress": 0.7455, "sha1": "de570d30"},
 "nacl-lucid_64-newlib-x86_32-pnacl-spec/spec2k/compiletime_eon/pnacl_translator.opt.x8632": {"reva": 11200, "revb": 11201, "type": "absolute", "better": "lower", "improve": 2.95925, "regress": 3.276, "sha1": "d71b4183"},
 "nacl-lucid_64-newlib-x86_32-pnacl-spec/spec2k/compiletime_eon/pnacl_translator_fast.opt.x8632": {"reva": 11200, "revb": 11201, "type": "absolute", "better": "lower", "improve": 1.27775, "regress": 1.41225, "sha1": "bb237b7a"},
 "nacl-lucid_64-newlib-x86_32-pnacl-spec/spec2k/compiletime_equake/pnacl_translator.opt.x8632": {"reva": 11142, "revb": 11143, "type": "absolute", "better": "lower", "improve": 0.741, "regress": 0.84, "sha1": "0b73d5cf"},
 "nacl-lucid_64-newlib-x86_32-pnacl-spec/spec2k/compiletime_equake/pnacl_translator_fast.opt.x8632": {"reva": 11142, "revb": 11143, "type": "absolute", "better": "lower", "improve": 0.323, "regress": 0.37275, "sha1": "a030f84d"},
 "nacl-lucid_64-newlib-x86_32-pnacl-spec/spec2k/compiletime_gap/pnacl_translator.opt.x8632": {"reva": 11142, "revb": 11143, "type": "absolute", "better": "lower", "improve": 2.907, "regress": 3.23925, "sha1": "7f4e0342"},
 "nacl-lucid_64-newlib-x86_32-pnacl-spec/spec2k/compiletime_gap/pnacl_translator_fast.opt.x8632": {"reva": 11142, "revb": 11143, "type": "absolute", "better": "lower", "improve": 1.09725, "regress": 1.21275, "sha1": "a79a8d31"},
 "nacl-lucid_64-newlib-x86_32-pnacl-spec/spec2k/compiletime_gcc/pnacl_translator.opt.x8632": {"reva": 11142, "revb": 11143, "type": "absolute", "better": "lower", "improve": 7.46225, "regress": 8.253, "sha1": "49863275"},
 "nacl-lucid_64-newlib-x86_32-pnacl-spec/spec2k/compiletime_gcc/pnacl_translator_fast.opt.x8632": {"reva": 11142, "revb": 11143, "type": "absolute", "better": "lower", "improve": 2.7075, "regress": 3.00825, "sha1": "06aee9ca"},
 "nacl-lucid_64-newlib-x86_32-pnacl-spec/spec2k/compiletime_gzip/pnacl_translator.opt.x8632": {"reva": 11142, "revb": 11143, "type": "absolute", "better": "lower", "improve": 0.59375, "regress": 0.6615, "sha1": "36919662"},
 "nacl-lucid_64-newlib-x86_32-pnacl-spec/spec2k/compiletime_gzip/pnacl_translator_fast.opt.x8632": {"reva": 11142, "revb": 11143, "type": "absolute", "better": "lower", "improve": 0.28025, "regress": 0.33075, "sha1": "20764068"},
 "nacl-lucid_64-newlib-x86_32-pnacl-spec/spec2k/compiletime_mcf/pnacl_translator.opt.x8632": {"reva": 11142, "revb": 11143, "type": "absolute", "better": "lower", "improve": 0.703, "regress": 0.777, "sha1": "3c56da3d"},
 "nacl-lucid_64-newlib-x86_32-pnacl-spec/spec2k/compiletime_mcf/pnacl_translator_fast.opt.x8632": {"reva": 11142, "revb": 11143, "type": "absolute", "better": "lower", "improve": 0.3135, "regress": 0.357, "sha1": "b780d304"},
 "nacl-lucid_64-newlib-x86_32-pnacl-spec/spec2k/compiletime_mesa/pnacl_translator.opt.x8632": {"reva": 11142, "revb": 11143, "type": "absolute", "better": "lower", "improve": 2.6125, "regress": 2.89275, "sha1": "5fc6bfa0"},
 "nacl-lucid_64-newlib-x86_32-pnacl-spec/spec2k/compiletime_mesa/pnacl_translator_fast.opt.x8632": {"reva": 11142, "revb": 11143, "type": "absolute", "better": "lower", "improve": 1.04975, "regress": 1.16025, "sha1": "551ddb56"},
 "nacl-lucid_64-newlib-x86_32-pnacl-spec/spec2k/compiletime_parser/pnacl_translator.opt.x8632": {"reva": 11142, "revb": 11143, "type": "absolute", "better": "lower", "improve": 1.17325, "regress": 1.31775, "sha1": "926460bb"},
 "nacl-lucid_64-newlib-x86_32-pnacl-spec/spec2k/compiletime_parser/pnacl_translator_fast.opt.x8632": {"reva": 11142, "revb": 11143, "type": "absolute", "better": "lower", "improve": 0.47025, "regress": 0.53025, "sha1": "054cc374"},
 "nacl-lucid_64-newlib-x86_32-pnacl-spec/spec2k/compiletime_perlbmk/pnacl_translator.opt.x8632": {"reva": 11142, "revb": 11143, "type": "absolute", "better": "lower", "improve": 3.38675, "regress": 3.759, "sha1": "7b0abfa1"},
 "nacl-lucid_64-newlib-x86_32-pnacl-spec/spec2k/compiletime_perlbmk/pnacl_translator_fast.opt.x8632": {"reva": 11142, "revb": 11143, "type": "absolute", "better": "lower", "improve": 1.1875, "regress": 1.323, "sha1": "42127e3a"},
 "nacl-lucid_64-newlib-x86_32-pnacl-spec/spec2k/compiletime_twolf/pnacl_translator.opt.x8632": {"reva": 11142, "revb": 11143, "type": "absolute", "better": "lower", "improve": 1.7005, "regress": 1.88475, "sha1": "e76f4121"},
 "nacl-lucid_64-newlib-x86_32-pnacl-spec/spec2k/compiletime_twolf/pnacl_translator_fast.opt.x8632": {"reva": 11142, "revb": 11143, "type": "absolute", "better": "lower", "improve": 0.58425, "regress": 0.64575, "sha1": "8c86ff41"},
 "nacl-lucid_64-newlib-x86_32-pnacl-spec/spec2k/compiletime_vortex/pnacl_translator.opt.x8632": {"reva": 11142, "revb": 11143, "type": "absolute", "better": "lower", "improve": 1.9095, "regress": 2.11575, "sha1": "c9ac9933"},
 "nacl-lucid_64-newlib-x86_32-pnacl-spec/spec2k/compiletime_vortex/pnacl_translator_fast.opt.x8632": {"reva": 11142, "revb": 11143, "type": "absolute", "better": "lower", "improve": 0.70775, "regress": 0.7875, "sha1": "2f59d384"},
 "nacl-lucid_64-newlib-x86_32-pnacl-spec/spec2k/compiletime_vpr/pnacl_translator.opt.x8632": {"reva": 11142, "revb": 11143, "type": "absolute", "better": "lower", "improve": 1.254, "regress": 1.39125, "sha1": "0fb10761"},
 "nacl-lucid_64-newlib-x86_32-pnacl-spec/spec2k/compiletime_vpr/pnacl_translator_fast.opt.x8632": {"reva": 11142, "revb": 11143, "type": "absolute", "better": "lower", "improve": 0.50825, "regress": 0.56175, "sha1": "f5ee3fa3"},
 "nacl-lucid_64-newlib-x86_32-pnacl-spec/spec2k/runtime_ammp/pnacl_translator.opt.x8632": {"reva": 10296, "revb": 10303, "type": "absolute", "better": "lower", "improve": 9.20075, "regress": 10.206, "sha1": "2f37cd12"},
 "nacl-lucid_64-newlib-x86_32-pnacl-spec/spec2k/runtime_ammp/pnacl_translator_fast.opt.x8632": {"reva": 10992, "revb": 11029, "type": "absolute", "better": "lower", "improve": 16.891, "regress": 18.8055, "sha1": "585386cd"},
 "nacl-lucid_64-newlib-x86_32-pnacl-spec/spec2k/runtime_art/pnacl_translator.opt.x8632": {"reva": 10296, "revb": 10303, "type": "absolute", "better": "lower", "improve": 1.23025, "regress": 1.3965, "sha1": "b045a96c"},
 "nacl-lucid_64-newlib-x86_32-pnacl-spec/spec2k/runtime_art/pnacl_translator_fast.opt.x8632": {"reva": 10992, "revb": 11029, "type": "absolute", "better": "lower", "improve": 2.071, "regress": 2.32575, "sha1": "938eee2b"},
 "nacl-lucid_64-newlib-x86_32-pnacl-spec/spec2k/runtime_bzip2/pnacl_translator.opt.x8632": {"reva": 10296, "revb": 10303, "type": "absolute", "better": "lower", "improve": 6.23675, "regress": 6.92475, "sha1": "c6d1ca16"},
 "nacl-lucid_64-newlib-x86_32-pnacl-spec/spec2k/runtime_bzip2/pnacl_translator_fast.opt.x8632": {"reva": 11101, "revb": 11111, "type": "absolute", "better": "lower", "improve": 15.5325, "regress": 17.18325, "sha1": "dbd40113"},
 "nacl-lucid_64-newlib-x86_32-pnacl-spec/spec2k/runtime_crafty/pnacl_translator.opt.x8632": {"reva": 10296, "revb": 10303, "type": "absolute", "better": "lower", "improve": 4.38425, "regress": 4.851, "sha1": "74b351d2"},
 "nacl-lucid_64-newlib-x86_32-pnacl-spec/spec2k/runtime_crafty/pnacl_translator_fast.opt.x8632": {"reva": 10992, "revb": 11029, "type": "absolute", "better": "lower", "improve": 10.0415, "regress": 11.214, "sha1": "daaec56d"},
 "nacl-lucid_64-newlib-x86_32-pnacl-spec/spec2k/runtime_eon/pnacl_translator.opt.x8632": {"reva": 10296, "revb": 10303, "type": "absolute", "better": "lower", "improve": 2.052, "regress": 2.31, "sha1": "dd197406"},
 "nacl-lucid_64-newlib-x86_32-pnacl-spec/spec2k/runtime_eon/pnacl_translator_fast.opt.x8632": {"reva": 10992, "revb": 11029, "type": "absolute", "better": "lower", "improve": 4.14675, "regress": 4.683, "sha1": "e61b8cc1"},
 "nacl-lucid_64-newlib-x86_32-pnacl-spec/spec2k/runtime_equake/pnacl_translator.opt.x8632": {"reva": 11075, "revb": 11086, "type": "absolute", "better": "lower", "improve": 3.4485, "regress": 3.906, "sha1": "1a1b4f20"},
 "nacl-lucid_64-newlib-x86_32-pnacl-spec/spec2k/runtime_equake/pnacl_translator_fast.opt.x8632": {"reva": 11075, "revb": 11086, "type": "absolute", "better": "lower", "improve": 5.643, "regress": 6.3, "sha1": "ee9dfbba"},
 "nacl-lucid_64-newlib-x86_32-pnacl-spec/spec2k/runtime_gap/pnacl_translator.opt.x8632": {"reva": 10296, "revb": 10303, "type": "absolute", "better": "lower", "improve": 1.273, "regress": 1.41225, "sha1": "8a2c5bdb"},
 "nacl-lucid_64-newlib-x86_32-pnacl-spec/spec2k/runtime_gap/pnacl_translator_fast.opt.x8632": {"reva": 10992, "revb": 11029, "type": "absolute", "better": "lower", "improve": 2.603, "regress": 2.91375, "sha1": "c3a4bef1"},
 "nacl-lucid_64-newlib-x86_32-pnacl-spec/spec2k/runtime_gcc/pnacl_translator.opt.x8632": {"reva": 11142, "revb": 11143, "type": "absolute", "better": "lower", "improve": 0.7315, "regress": 0.8085, "sha1": "0944dafc"},
 "nacl-lucid_64-newlib-x86_32-pnacl-spec/spec2k/runtime_gcc/pnacl_translator_fast.opt.x8632": {"reva": 11142, "revb": 11143, "type": "absolute", "better": "lower", "improve": 1.6625, "regress": 1.85325, "sha1": "632bbeb9"},
 "nacl-lucid_64-newlib-x86_32-pnacl-spec/spec2k/runtime_gzip/pnacl_translator.opt.x8632": {"reva": 10296, "revb": 10303, "type": "absolute", "better": "lower", "improve": 7.35775, "regress": 8.148, "sha1": "86f90f95"},
 "nacl-lucid_64-newlib-x86_32-pnacl-spec/spec2k/runtime_gzip/pnacl_translator_fast.opt.x8632": {"reva": 11101, "revb": 11111, "type": "absolute", "better": "lower", "improve": 18.525, "regress": 20.496, "sha1": "2935d122"},
 "nacl-lucid_64-newlib-x86_32-pnacl-spec/spec2k/runtime_mcf/pnacl_translator.opt.x8632": {"reva": 10296, "revb": 10303, "type": "absolute", "better": "lower", "improve": 3.097, "regress": 3.42825, "sha1": "f766a824"},
 "nacl-lucid_64-newlib-x86_32-pnacl-spec/spec2k/runtime_mcf/pnacl_translator_fast.opt.x8632": {"reva": 10992, "revb": 11029, "type": "absolute", "better": "lower", "improve": 4.46975, "regress": 4.956, "sha1": "57e9f8ac"},
 "nacl-lucid_64-newlib-x86_32-pnacl-spec/spec2k/runtime_mesa/pnacl_translator.opt.x8632": {"reva": 10296, "revb": 10303, "type": "absolute", "better": "lower", "improve": 8.85875, "regress": 9.849, "sha1": "8d339ab1"},
 "nacl-lucid_64-newlib-x86_32-pnacl-spec/spec2k/runtime_mesa/pnacl_translator_fast.opt.x8632": {"reva": 11101, "revb": 11111, "type": "absolute", "better": "lower", "improve": 18.4395, "regress": 20.42775, "sha1": "fafa6309"},
 "nacl-lucid_64-newlib-x86_32-pnacl-spec/spec2k/runtime_parser/pnacl_translator.opt.x8632": {"reva": 10296, "revb": 10303, "type": "absolute", "better": "lower", "improve": 1.56275, "regress": 1.7325, "sha1": "d435ca1b"},
 "nacl-lucid_64-newlib-x86_32-pnacl-spec/spec2k/runtime_parser/pnacl_translator_fast.opt.x8632": {"reva": 10992, "revb": 11029, "type": "absolute", "better": "lower", "improve": 2.77875, "regress": 3.0975, "sha1": "fdf7bb65"},
 "nacl-lucid_64-newlib-x86_32-pnacl-spec/spec2k/runtime_perlbmk/pnacl_translator.opt.x8632": {"reva": 10296, "revb": 10303, "type": "absolute", "better": "lower", "improve": 10.431, "regress": 11.5815, "sha1": "3647cf05"},
 "nacl-lucid_64-newlib-x86_32-pnacl-spec/spec2k/runtime_perlbmk/pnacl_translator_fast.opt.x8632": {"reva": 10992, "revb": 11029, "type": "absolute", "better": "lower", "improve": 23.88775, "regress": 26.71725, "sha1": "7a805f26"},
 "nacl-lucid_64-newlib-x86_32-pnacl-spec/spec2k/runtime_twolf/pnacl_translator.opt.x8632": {"reva": 10296, "revb": 10303, "type": "absolute", "better": "lower", "improve": 2.888, "regress": 3.234, "sha1": "fff1adea"},
 "nacl-lucid_64-newlib-x86_32-pnacl-spec/spec2k/runtime_twolf/pnacl_translator_fast.opt.x8632": {"reva": 10992, "revb": 11029, "type": "absolute", "better": "lower", "improve": 4.61225, "regress": 5.1975, "sha1": "489c9ff6"},
 "nacl-lucid_64-newlib-x86_32-pnacl-spec/spec2k/runtime_vortex/pnacl_translator.opt.x8632": {"reva": 10388, "revb": 10397, "type": "absolute", "better": "lower", "improve": 1.80975, "regress": 2.016, "sha1": "a14390ab"},
 "nacl-lucid_64-newlib-x86_32-pnacl-spec/spec2k/runtime_vortex/pnacl_translator_fast.opt.x8632": {"reva": 10992, "revb": 11029, "type": "absolute", "better": "lower", "improve": 3.344, "regress": 3.75375, "sha1": "4a0d003d"},
 "nacl-lucid_64-newlib-x86_32-pnacl-spec/spec2k/runtime_vpr/pnacl_translator.opt.x8632": {"reva": 10296, "revb": 10303, "type": "absolute", "better": "lower", "improve": 5.34375, "regress": 5.96925, "sha1": "595d3501"},
 "nacl-lucid_64-newlib-x86_32-pnacl-spec/spec2k/runtime_vpr/pnacl_translator_fast.opt.x8632": {"reva": 10992, "revb": 11029, "type": "absolute", "better": "lower", "improve": 9.3955, "regress": 10.6155, "sha1": "78bd1878"},
 "nacl-lucid_64-newlib-x86_32-pnacl-spec/spec2k/transfersize_ammp/opt.stripped.pexe": {"reva": 11165, "revb": 11165, "type": "absolute", "better": "lower", "improve": 208884, "regress": 230872, "sha1": "fab1d523"},
 "nacl-lucid_64-newlib-x86_32-pnacl-spec/spec2k/transfersize_art/opt.stripped.pexe": {"reva": 11165, "revb": 11165, "type": "absolute", "better": "lower", "improve": 118394, "regress": 130858, "sha1": "83042f38"},
 "nacl-lucid_64-newlib-x86_32-pnacl-spec/spec2k/transfersize_bzip2/opt.stripped.pexe": {"reva": 11165, "revb": 11165, "type": "absolute", "better": "lower", "improve": 86290, "regress": 95374, "sha1": "c6c1ff7a"},
 "nacl-lucid_64-newlib-x86_32-pnacl-spec/spec2k/transfersize_crafty/opt.stripped.pexe": {"reva": 11165, "revb": 11165, "type": "absolute", "better": "lower", "improve": 305678, "regress": 337856, "sha1": "b748fe1b"},
 "nacl-lucid_64-newlib-x86_32-pnacl-spec/spec2k/transfersize_eon/opt.stripped.pexe": {"reva": 11200, "revb": 11200, "type": "absolute", "better": "lower", "improve": 579794, "regress": 640826, "sha1": "99da1443"},
 "nacl-lucid_64-newlib-x86_32-pnacl-spec/spec2k/transfersize_equake/opt.stripped.pexe": {"reva": 11165, "revb": 11165, "type": "absolute", "better": "lower", "improve": 126651, "regress": 139983, "sha1": "3e2a8eda"},
 "nacl-lucid_64-newlib-x86_32-pnacl-spec/spec2k/transfersize_gap/opt.stripped.pexe": {"reva": 11165, "revb": 11165, "type": "absolute", "better": "lower", "improve": 455905, "regress": 503897, "sha1": "95f84c32"},
 "nacl-lucid_64-newlib-x86_32-pnacl-spec/spec2k/transfersize_gcc/opt.stripped.pexe": {"reva": 11165, "revb": 11165, "type": "absolute", "better": "lower", "improve": 1525383, "regress": 1685951, "sha1": "d340cb36"},
 "nacl-lucid_64-newlib-x86_32-pnacl-spec/spec2k/transfersize_gzip/opt.stripped.pexe": {"reva": 11165, "revb": 11165, "type": "absolute", "better": "lower", "improve": 87456, "regress": 96662, "sha1": "10654cf4"},
 "nacl-lucid_64-newlib-x86_32-pnacl-spec/spec2k/transfersize_mcf/opt.stripped.pexe": {"reva": 11165, "revb": 11165, "type": "absolute", "better": "lower", "improve": 117206, "regress": 129544, "sha1": "3f32e14d"},
 "nacl-lucid_64-newlib-x86_32-pnacl-spec/spec2k/transfersize_mesa/opt.stripped.pexe": {"reva": 11165, "revb": 11165, "type": "absolute", "better": "lower", "improve": 541396, "regress": 598386, "sha1": "20d4c2ea"},
 "nacl-lucid_64-newlib-x86_32-pnacl-spec/spec2k/transfersize_parser/opt.stripped.pexe": {"reva": 11165, "revb": 11165, "type": "absolute", "better": "lower", "improve": 226292, "regress": 250114, "sha1": "3a17d3b6"},
 "nacl-lucid_64-newlib-x86_32-pnacl-spec/spec2k/transfersize_perlbmk/opt.stripped.pexe": {"reva": 11165, "revb": 11165, "type": "absolute", "better": "lower", "improve": 672106, "regress": 742854, "sha1": "4b55ae21"},
 "nacl-lucid_64-newlib-x86_32-pnacl-spec/spec2k/transfersize_twolf/opt.stripped.pexe": {"reva": 11165, "revb": 11165, "type": "absolute", "better": "lower", "improve": 313819, "regress": 346853, "sha1": "1b003ae2"},
 "nacl-lucid_64-newlib-x86_32-pnacl-spec/spec2k/transfersize_vortex/opt.stripped.pexe": {"reva": 11165, "revb": 11165, "type": "absolute", "better": "lower", "improve": 390706, "regress": 431834, "sha1": "9f5ed5b9"},
 "nacl-lucid_64-newlib-x86_32-pnacl-spec/spec2k/transfersize_vpr/opt.stripped.pexe": {"reva": 11165, "revb": 11165, "type": "absolute", "better": "lower", "improve": 252281, "regress": 278837, "sha1": "993a56b5"},
 "nacl-lucid_64-newlib-x86_32-spec/spec2k/runtime_ammp/nacl.opt.x8632": {"reva": 10296, "revb": 10303, "type": "absolute", "better": "lower", "improve": 9.1485, "regress": 10.16925, "sha1": "81cfd5d3"},
 "nacl-lucid_64-newlib-x86_32-spec/spec2k/runtime_art/nacl.opt.x8632": {"reva": 10296, "revb": 10303, "type": "absolute", "better": "lower", "improve": 2.36075, "regress": 2.6355, "sha1": "d1648dfd"},
 "nacl-lucid_64-newlib-x86_32-spec/spec2k/runtime_bzip2/nacl.opt.x8632": {"reva": 10296, "revb": 10303, "type": "absolute", "better": "lower", "improve": 6.5075, "regress": 7.31325, "sha1": "1cf673fb"},
 "nacl-lucid_64-newlib-x86_32-spec/spec2k/runtime_crafty/nacl.opt.x8632": {"reva": 10296, "revb": 10303, "type": "absolute", "better": "lower", "improve": 5.21075, "regress": 5.76975, "sha1": "8d372fdc"},
 "nacl-lucid_64-newlib-x86_32-spec/spec2k/runtime_eon/nacl.opt.x8632": {"reva": 10296, "revb": 10303, "type": "absolute", "better": "lower", "improve": 2.4985, "regress": 2.8245, "sha1": "8ca1098f"},
 "nacl-lucid_64-newlib-x86_32-spec/spec2k/runtime_equake/nacl.opt.x8632": {"reva": 10296, "revb": 10303, "type": "absolute", "better": "lower", "improve": 3.99475, "regress": 4.494, "sha1": "d4190baa"},
 "nacl-lucid_64-newlib-x86_32-spec/spec2k/runtime_gap/nacl.opt.x8632": {"reva": 10296, "revb": 10303, "type": "absolute", "better": "lower", "improve": 1.2635, "regress": 1.407, "sha1": "809bb929"},
 "nacl-lucid_64-newlib-x86_32-spec/spec2k/runtime_gcc/nacl.opt.x8632": {"reva": 11142, "revb": 11143, "type": "absolute", "better": "lower", "improve": 0.72675, "regress": 0.819, "sha1": "2735bb75"},
 "nacl-lucid_64-newlib-x86_32-spec/spec2k/runtime_gzip/nacl.opt.x8632": {"reva": 10296, "revb": 10303, "type": "absolute", "better": "lower", "improve": 7.961, "regress": 8.8095, "sha1": "f5275a22"},
 "nacl-lucid_64-newlib-x86_32-spec/spec2k/runtime_mcf/nacl.opt.x8632": {"reva": 10296, "revb": 10303, "type": "absolute", "better": "lower", "improve": 3.1065, "regress": 3.444, "sha1": "ab79d1c4"},
 "nacl-lucid_64-newlib-x86_32-spec/spec2k/runtime_mesa/nacl.opt.x8632": {"reva": 10296, "revb": 10303, "type": "absolute", "better": "lower", "improve": 9.93225, "regress": 11.025, "sha1": "56b15483"},
 "nacl-lucid_64-newlib-x86_32-spec/spec2k/runtime_parser/nacl.opt.x8632": {"reva": 10296, "revb": 10303, "type": "absolute", "better": "lower", "improve": 1.634, "regress": 1.8165, "sha1": "2507c4f4"},
 "nacl-lucid_64-newlib-x86_32-spec/spec2k/runtime_perlbmk/nacl.opt.x8632": {"reva": 10296, "revb": 10303, "type": "absolute", "better": "lower", "improve": 12.16, "regress": 13.461, "sha1": "f8e15807"},
 "nacl-lucid_64-newlib-x86_32-spec/spec2k/runtime_twolf/nacl.opt.x8632": {"reva": 10296, "revb": 10303, "type": "absolute", "better": "lower", "improve": 3.06375, "regress": 3.43875, "sha1": "cf9261ab"},
 "nacl-lucid_64-newlib-x86_32-spec/spec2k/runtime_vortex/nacl.opt.x8632": {"reva": 10296, "revb": 10303, "type": "absolute", "better": "lower", "improve": 2.86425, "regress": 3.17625, "sha1": "666f7f1d"},
 "nacl-lucid_64-newlib-x86_32-spec/spec2k/runtime_vpr/nacl.opt.x8632": {"reva": 10296, "revb": 10303, "type": "absolute", "better": "lower", "improve": 5.82825, "regress": 6.50475, "sha1": "58b6f2be"},
 "nacl-lucid_64-newlib-x86_64-pnacl-spec/spec2k/compiletime_ammp/pnacl_translator.opt.x8664": {"reva": 11142, "revb": 11143, "type": "absolute", "better": "lower", "improve": 1.53425, "regress": 1.69575, "sha1": "76ac4a7d"},
 "nacl-lucid_64-newlib-x86_64-pnacl-spec/spec2k/compiletime_ammp/pnacl_translator_fast.opt.x8664": {"reva": 11142, "revb": 11143, "type": "absolute", "better": "lower", "improve": 0.52725, "regress": 0.58275, "sha1": "257ec62f"},
 "nacl-lucid_64-newlib-x86_64-pnacl-spec/spec2k/compiletime_art/pnacl_translator.opt.x8664": {"reva": 11142, "revb": 11143, "type": "absolute", "better": "lower", "improve": 0.8835, "regress": 0.9765, "sha1": "4db71ee6"},
 "nacl-lucid_64-newlib-x86_64-pnacl-spec/spec2k/compiletime_art/pnacl_translator_fast.opt.x8664": {"reva": 11142, "revb": 11143, "type": "absolute", "better": "lower", "improve": 0.361, "regress": 0.42, "sha1": "b00883ad"},
 "nacl-lucid_64-newlib-x86_64-pnacl-spec/spec2k/compiletime_bzip2/pnacl_translator.opt.x8664": {"reva": 11142, "revb": 11143, "type": "absolute", "better": "lower", "improve": 0.71725, "regress": 0.79275, "sha1": "95383edd"},
 "nacl-lucid_64-newlib-x86_64-pnacl-spec/spec2k/compiletime_bzip2/pnacl_translator_fast.opt.x8664": {"reva": 11142, "revb": 11143, "type": "absolute", "better": "lower", "improve": 0.3325, "regress": 0.37275, "sha1": "da0450ff"},
 "nacl-lucid_64-newlib-x86_64-pnacl-spec/spec2k/compiletime_crafty/pnacl_translator.opt.x8664": {"reva": 11142, "revb": 11143, "type": "absolute", "better": "lower", "improve": 1.748, "regress": 1.93725, "sha1": "31ef57b3"},
 "nacl-lucid_64-newlib-x86_64-pnacl-spec/spec2k/compiletime_crafty/pnacl_translator_fast.opt.x8664": {"reva": 11142, "revb": 11143, "type": "absolute", "better": "lower", "improve": 0.61275, "regress": 0.6825, "sha1": "8b102ae5"},
 "nacl-lucid_64-newlib-x86_64-pnacl-spec/spec2k/compiletime_eon/pnacl_translator.opt.x8664": {"reva": 11200, "revb": 11201, "type": "absolute", "better": "lower", "improve": 3.44375, "regress": 3.8115, "sha1": "451d793b"},
 "nacl-lucid_64-newlib-x86_64-pnacl-spec/spec2k/compiletime_eon/pnacl_translator_fast.opt.x8664": {"reva": 11200, "revb": 11201, "type": "absolute", "better": "lower", "improve": 1.23025, "regress": 1.365, "sha1": "4e94b857"},
 "nacl-lucid_64-newlib-x86_64-pnacl-spec/spec2k/compiletime_equake/pnacl_translator.opt.x8664": {"reva": 11142, "revb": 11143, "type": "absolute", "better": "lower", "improve": 0.91675, "regress": 1.01325, "sha1": "dd463ed8"},
 "nacl-lucid_64-newlib-x86_64-pnacl-spec/spec2k/compiletime_equake/pnacl_translator_fast.opt.x8664": {"reva": 11142, "revb": 11143, "type": "absolute", "better": "lower", "improve": 0.3705, "regress": 0.41475, "sha1": "0ba18d63"},
 "nacl-lucid_64-newlib-x86_64-pnacl-spec/spec2k/compiletime_gap/pnacl_translator.opt.x8664": {"reva": 11142, "revb": 11143, "type": "absolute", "better": "lower", "improve": 3.458, "regress": 3.822, "sha1": "7a7fdf20"},
 "nacl-lucid_64-newlib-x86_64-pnacl-spec/spec2k/compiletime_gap/pnacl_translator_fast.opt.x8664": {"reva": 11142, "revb": 11143, "type": "absolute", "better": "lower", "improve": 1.178, "regress": 1.302, "sha1": "9a52282c"},
 "nacl-lucid_64-newlib-x86_64-pnacl-spec/spec2k/compiletime_gcc/pnacl_translator.opt.x8664": {"reva": 11142, "revb": 11143, "type": "absolute", "better": "lower", "improve": 9.1865, "regress": 10.1745, "sha1": "02d35608"},
 "nacl-lucid_64-newlib-x86_64-pnacl-spec/spec2k/compiletime_gcc/pnacl_translator_fast.opt.x8664": {"reva": 11142, "revb": 11143, "type": "absolute", "better": "lower", "improve": 2.907, "regress": 3.2235, "sha1": "c5a057f6"},
 "nacl-lucid_64-newlib-x86_64-pnacl-spec/spec2k/compiletime_gzip/pnacl_translator.opt.x8664": {"reva": 11142, "revb": 11143, "type": "absolute", "better": "lower", "improve": 0.70775, "regress": 0.80325, "sha1": "2f9b7b92"},
 "nacl-lucid_64-newlib-x86_64-pnacl-spec/spec2k/compiletime_gzip/pnacl_translator_fast.opt.x8664": {"reva": 11142, "revb": 11143, "type": "absolute", "better": "lower", "improve": 0.33725, "regress": 0.38325, "sha1": "8688d550"},
 "nacl-lucid_64-newlib-x86_64-pnacl-spec/spec2k/compiletime_mcf/pnacl_translator.opt.x8664": {"reva": 11142, "revb": 11143, "type": "absolute", "better": "lower", "improve": 0.85025, "regress": 0.945, "sha1": "1d3d8723"},
 "nacl-lucid_64-newlib-x86_64-pnacl-spec/spec2k/compiletime_mcf/pnacl_translator_fast.opt.x8664": {"reva": 11142, "revb": 11143, "type": "absolute", "better": "lower", "improve": 0.361, "regress": 0.40425, "sha1": "93039184"},
 "nacl-lucid_64-newlib-x86_64-pnacl-spec/spec2k/compiletime_mesa/pnacl_translator.opt.x8664": {"reva": 11142, "revb": 11143, "type": "absolute", "better": "lower", "improve": 3.135, "regress": 3.465, "sha1": "6a3c933b"},
 "nacl-lucid_64-newlib-x86_64-pnacl-spec/spec2k/compiletime_mesa/pnacl_translator_fast.opt.x8664": {"reva": 11142, "revb": 11143, "type": "absolute", "better": "lower", "improve": 1.1115, "regress": 1.2285, "sha1": "58fbf057"},
 "nacl-lucid_64-newlib-x86_64-pnacl-spec/spec2k/compiletime_parser/pnacl_translator.opt.x8664": {"reva": 11142, "revb": 11143, "type": "absolute", "better": "lower", "improve": 1.4725, "regress": 1.6485, "sha1": "17d9b3b5"},
 "nacl-lucid_64-newlib-x86_64-pnacl-spec/spec2k/compiletime_parser/pnacl_translator_fast.opt.x8664": {"reva": 11142, "revb": 11143, "type": "absolute", "better": "lower", "improve": 0.53675, "regress": 0.5985, "sha1": "50efb129"},
 "nacl-lucid_64-newlib-x86_64-pnacl-spec/spec2k/compiletime_perlbmk/pnacl_translator.opt.x8664": {"reva": 11142, "revb": 11143, "type": "absolute", "better": "lower", "improve": 4.161, "regress": 4.6095, "sha1": "71fda9e7"},
 "nacl-lucid_64-newlib-x86_64-pnacl-spec/spec2k/compiletime_perlbmk/pnacl_translator_fast.opt.x8664": {"reva": 11142, "revb": 11143, "type": "absolute", "better": "lower", "improve": 1.3205, "regress": 1.46475, "sha1": "a93782ff"},
 "nacl-lucid_64-newlib-x86_64-pnacl-spec/spec2k/compiletime_twolf/pnacl_translator.opt.x8664": {"reva": 11142, "revb": 11143, "type": "absolute", "better": "lower", "improve": 2.04725, "regress": 2.268, "sha1": "337f6696"},
 "nacl-lucid_64-newlib-x86_64-pnacl-spec/spec2k/compiletime_twolf/pnacl_translator_fast.opt.x8664": {"reva": 11142, "revb": 11143, "type": "absolute", "better": "lower", "improve": 0.66025, "regress": 0.735, "sha1": "f6881584"},
 "nacl-lucid_64-newlib-x86_64-pnacl-spec/spec2k/compiletime_vortex/pnacl_translator.opt.x8664": {"reva": 11142, "revb": 11143, "type": "absolute", "better": "lower", "improve": 2.356, "regress": 2.63025, "sha1": "ef56b619"},
 "nacl-lucid_64-newlib-x86_64-pnacl-spec/spec2k/compiletime_vortex/pnacl_translator_fast.opt.x8664": {"reva": 11142, "revb": 11143, "type": "absolute", "better": "lower", "improve": 0.77425, "regress": 0.861, "sha1": "7aadc7c2"},
 "nacl-lucid_64-newlib-x86_64-pnacl-spec/spec2k/compiletime_vpr/pnacl_translator.opt.x8664": {"reva": 11142, "revb": 11143, "type": "absolute", "better": "lower", "improve": 1.5485, "regress": 1.73775, "sha1": "c41cb54e"},
 "nacl-lucid_64-newlib-x86_64-pnacl-spec/spec2k/compiletime_vpr/pnacl_translator_fast.opt.x8664": {"reva": 11142, "revb": 11143, "type": "absolute", "better": "lower", "improve": 0.54625, "regress": 0.62475, "sha1": "ab703c00"},
 "nacl-lucid_64-newlib-x86_64-pnacl-spec/spec2k/runtime_ammp/pnacl_translator.opt.x8664": {"reva": 10296, "revb": 10303, "type": "absolute", "better": "lower", "improve": 9.10575, "regress": 10.10625, "sha1": "2fabc40a"},
 "nacl-lucid_64-newlib-x86_64-pnacl-spec/spec2k/runtime_ammp/pnacl_translator_fast.opt.x8664": {"reva": 10992, "revb": 11029, "type": "absolute", "better": "lower", "improve": 16.34, "regress": 18.14925, "sha1": "50c79ce1"},
 "nacl-lucid_64-newlib-x86_64-pnacl-spec/spec2k/runtime_art/pnacl_translator.opt.x8664": {"reva": 10296, "revb": 10303, "type": "absolute", "better": "lower", "improve": 1.28725, "regress": 1.44375, "sha1": "27a7e43c"},
 "nacl-lucid_64-newlib-x86_64-pnacl-spec/spec2k/runtime_art/pnacl_translator_fast.opt.x8664": {"reva": 10992, "revb": 11029, "type": "absolute", "better": "lower", "improve": 2.2325, "regress": 2.499, "sha1": "668c4d5b"},
 "nacl-lucid_64-newlib-x86_64-pnacl-spec/spec2k/runtime_bzip2/pnacl_translator.opt.x8664": {"reva": 10296, "revb": 10303, "type": "absolute", "better": "lower", "improve": 8.113, "regress": 9.01425, "sha1": "d68f23ed"},
 "nacl-lucid_64-newlib-x86_64-pnacl-spec/spec2k/runtime_bzip2/pnacl_translator_fast.opt.x8664": {"reva": 11101, "revb": 11111, "type": "absolute", "better": "lower", "improve": 16.37325, "regress": 18.32775, "sha1": "9ec139fa"},
 "nacl-lucid_64-newlib-x86_64-pnacl-spec/spec2k/runtime_crafty/pnacl_translator.opt.x8664": {"reva": 10296, "revb": 10303, "type": "absolute", "better": "lower", "improve": 3.9235, "regress": 4.35225, "sha1": "86cc7c8c"},
 "nacl-lucid_64-newlib-x86_64-pnacl-spec/spec2k/runtime_crafty/pnacl_translator_fast.opt.x8664": {"reva": 11101, "revb": 11102, "type": "absolute", "better": "lower", "improve": 8.57375, "regress": 9.51825, "sha1": "2d5d1314"},
 "nacl-lucid_64-newlib-x86_64-pnacl-spec/spec2k/runtime_eon/pnacl_translator.opt.x8664": {"reva": 11101, "revb": 11111, "type": "absolute", "better": "lower", "improve": 2.223, "regress": 2.541, "sha1": "e5421c54"},
 "nacl-lucid_64-newlib-x86_64-pnacl-spec/spec2k/runtime_eon/pnacl_translator_fast.opt.x8664": {"reva": 10992, "revb": 11029, "type": "absolute", "better": "lower", "improve": 4.4745, "regress": 5.05575, "sha1": "0948f54b"},
 "nacl-lucid_64-newlib-x86_64-pnacl-spec/spec2k/runtime_equake/pnacl_translator.opt.x8664": {"reva": 11075, "revb": 11086, "type": "absolute", "better": "lower", "improve": 3.52925, "regress": 3.97425, "sha1": "b3cfce6c"},
 "nacl-lucid_64-newlib-x86_64-pnacl-spec/spec2k/runtime_equake/pnacl_translator_fast.opt.x8664": {"reva": 10992, "revb": 11029, "type": "absolute", "better": "lower", "improve": 5.2915, "regress": 5.93775, "sha1": "b06170ca"},
 "nacl-lucid_64-newlib-x86_64-pnacl-spec/spec2k/runtime_gap/pnacl_translator.opt.x8664": {"reva": 10296, "revb": 10303, "type": "absolute", "better": "lower", "improve": 1.45825, "regress": 1.62225, "sha1": "5a6bfcfb"},
 "nacl-lucid_64-newlib-x86_64-pnacl-spec/spec2k/runtime_gap/pnacl_translator_fast.opt.x8664": {"reva": 10992, "revb": 11029, "type": "absolute", "better": "lower", "improve": 2.641, "regress": 2.95575, "sha1": "986f5a35"},
 "nacl-lucid_64-newlib-x86_64-pnacl-spec/spec2k/runtime_gcc/pnacl_translator.opt.x8664": {"reva": 11142, "revb": 11143, "type": "absolute", "better": "lower", "improve": 0.8455, "regress": 0.93975, "sha1": "bfff1c65"},
 "nacl-lucid_64-newlib-x86_64-pnacl-spec/spec2k/runtime_gcc/pnacl_translator_fast.opt.x8664": {"reva": 11142, "revb": 11143, "type": "absolute", "better": "lower", "improve": 1.7195, "regress": 1.90575, "sha1": "cf533f58"},
 "nacl-lucid_64-newlib-x86_64-pnacl-spec/spec2k/runtime_gzip/pnacl_translator.opt.x8664": {"reva": 11075, "revb": 11086, "type": "absolute", "better": "lower", "improve": 8.227, "regress": 9.1245, "sha1": "85501c9d"},
 "nacl-lucid_64-newlib-x86_64-pnacl-spec/spec2k/runtime_gzip/pnacl_translator_fast.opt.x8664": {"reva": 11101, "revb": 11111, "type": "absolute", "better": "lower", "improve": 17.7365, "regress": 19.6245, "sha1": "d7e18cdc"},
 "nacl-lucid_64-newlib-x86_64-pnacl-spec/spec2k/runtime_mcf/pnacl_translator.opt.x8664": {"reva": 10296, "revb": 10303, "type": "absolute", "better": "lower", "improve": 3.1825, "regress": 3.549, "sha1": "3977dc94"},
 "nacl-lucid_64-newlib-x86_64-pnacl-spec/spec2k/runtime_mcf/pnacl_translator_fast.opt.x8664": {"reva": 10992, "revb": 11029, "type": "absolute", "better": "lower", "improve": 4.598, "regress": 5.12925, "sha1": "d45dba4c"},
 "nacl-lucid_64-newlib-x86_64-pnacl-spec/spec2k/runtime_mesa/pnacl_translator.opt.x8664": {"reva": 10296, "revb": 10303, "type": "absolute", "better": "lower", "improve": 9.5, "regress": 10.5525, "sha1": "a4a93c31"},
 "nacl-lucid_64-newlib-x86_64-pnacl-spec/spec2k/runtime_mesa/pnacl_translator_fast.opt.x8664": {"reva": 10992, "revb": 11029, "type": "absolute", "better": "lower", "improve": 16.34475, "regress": 18.207, "sha1": "4a7b4b76"},
 "nacl-lucid_64-newlib-x86_64-pnacl-spec/spec2k/runtime_parser/pnacl_translator.opt.x8664": {"reva": 10296, "revb": 10303, "type": "absolute", "better": "lower", "improve": 1.66725, "regress": 1.86375, "sha1": "41186e30"},
 "nacl-lucid_64-newlib-x86_64-pnacl-spec/spec2k/runtime_parser/pnacl_translator_fast.opt.x8664": {"reva": 10992, "revb": 11029, "type": "absolute", "better": "lower", "improve": 2.77875, "regress": 3.10275, "sha1": "4c3d00fa"},
 "nacl-lucid_64-newlib-x86_64-pnacl-spec/spec2k/runtime_perlbmk/pnacl_translator.opt.x8664": {"reva": 10598, "revb": 10607, "type": "absolute", "better": "lower", "improve": 13.471, "regress": 14.952, "sha1": "df720e5c"},
 "nacl-lucid_64-newlib-x86_64-pnacl-spec/spec2k/runtime_perlbmk/pnacl_translator_fast.opt.x8664": {"reva": 10992, "revb": 11029, "type": "absolute", "better": "lower", "improve": 24.68575, "regress": 27.51525, "sha1": "1464a6f2"},
 "nacl-lucid_64-newlib-x86_64-pnacl-spec/spec2k/runtime_twolf/pnacl_translator.opt.x8664": {"reva": 10296, "revb": 10303, "type": "absolute", "better": "lower", "improve": 3.097, "regress": 3.49125, "sha1": "86538273"},
 "nacl-lucid_64-newlib-x86_64-pnacl-spec/spec2k/runtime_twolf/pnacl_translator_fast.opt.x8664": {"reva": 10992, "revb": 11029, "type": "absolute", "better": "lower", "improve": 4.6835, "regress": 5.28675, "sha1": "f5fe2999"},
 "nacl-lucid_64-newlib-x86_64-pnacl-spec/spec2k/runtime_vortex/pnacl_translator.opt.x8664": {"reva": 11200, "revb": 11201, "type": "absolute", "better": "lower", "improve": 1.92375, "regress": 2.13675, "sha1": "35de5706"},
 "nacl-lucid_64-newlib-x86_64-pnacl-spec/spec2k/runtime_vortex/pnacl_translator_fast.opt.x8664": {"reva": 11200, "revb": 11201, "type": "absolute", "better": "lower", "improve": 3.28225, "regress": 3.63825, "sha1": "d56cabcf"},
 "nacl-lucid_64-newlib-x86_64-pnacl-spec/spec2k/runtime_vpr/pnacl_translator.opt.x8664": {"reva": 10296, "revb": 10303, "type": "absolute", "better": "lower", "improve": 5.63825, "regress": 6.279, "sha1": "92a62b43"},
 "nacl-lucid_64-newlib-x86_64-pnacl-spec/spec2k/runtime_vpr/pnacl_translator_fast.opt.x8664": {"reva": 10992, "revb": 11029, "type": "absolute", "better": "lower", "improve": 9.47625, "regress": 10.58925, "sha1": "e358677f"},
 "nacl-lucid_64-newlib-x86_64-pnacl-spec/spec2k/transfersize_ammp/opt.stripped.pexe": {"reva": 11165, "revb": 11165, "type": "absolute", "better": "lower", "improve": 208884, "regress": 230872, "sha1": "84140561"},
 "nacl-lucid_64-newlib-x86_64-pnacl-spec/spec2k/transfersize_art/opt.stripped.pexe": {"reva": 11165, "revb": 11165, "type": "absolute", "better": "lower", "improve": 118394, "regress": 130858, "sha1": "b348b032"},
 "nacl-lucid_64-newlib-x86_64-pnacl-spec/spec2k/transfersize_bzip2/opt.stripped.pexe": {"reva": 11165, "revb": 11165, "type": "absolute", "better": "lower", "improve": 86290, "regress": 95374, "sha1": "6693c594"},
 "nacl-lucid_64-newlib-x86_64-pnacl-spec/spec2k/transfersize_crafty/opt.stripped.pexe": {"reva": 11165, "revb": 11165, "type": "absolute", "better": "lower", "improve": 305678, "regress": 337856, "sha1": "e2d3ff3e"},
 "nacl-lucid_64-newlib-x86_64-pnacl-spec/spec2k/transfersize_eon/opt.stripped.pexe": {"reva": 11200, "revb": 11200, "type": "absolute", "better": "lower", "improve": 579794, "regress": 640826, "sha1": "97515866"},
 "nacl-lucid_64-newlib-x86_64-pnacl-spec/spec2k/transfersize_equake/opt.stripped.pexe": {"reva": 11165, "revb": 11165, "type": "absolute", "better": "lower", "improve": 126651, "regress": 139983, "sha1": "eeb4e6f6"},
 "nacl-lucid_64-newlib-x86_64-pnacl-spec/spec2k/transfersize_gap/opt.stripped.pexe": {"reva": 11165, "revb": 11165, "type": "absolute", "better": "lower", "improve": 455905, "regress": 503897, "sha1": "8bf3ac09"},
 "nacl-lucid_64-newlib-x86_64-pnacl-spec/spec2k/transfersize_gcc/opt.stripped.pexe": {"reva": 11165, "revb": 11165, "type": "absolute", "better": "lower", "improve": 1525383, "regress": 1685951, "sha1": "38301e8d"},
 "nacl-lucid_64-newlib-x86_64-pnacl-spec/spec2k/transfersize_gzip/opt.stripped.pexe": {"reva": 11165, "revb": 11165, "type": "absolute", "better": "lower", "improve": 87456, "regress": 96662, "sha1": "1d6b618a"},
 "nacl-lucid_64-newlib-x86_64-pnacl-spec/spec2k/transfersize_mcf/opt.stripped.pexe": {"reva": 11165, "revb": 11165, "type": "absolute", "better": "lower", "improve": 117206, "regress": 129544, "sha1": "e4a88a99"},
 "nacl-lucid_64-newlib-x86_64-pnacl-spec/spec2k/transfersize_mesa/opt.stripped.pexe": {"reva": 11165, "revb": 11165, "type": "absolute", "better": "lower", "improve": 541396, "regress": 598386, "sha1": "98ca5bcd"},
 "nacl-lucid_64-newlib-x86_64-pnacl-spec/spec2k/transfersize_parser/opt.stripped.pexe": {"reva": 11165, "revb": 11165, "type": "absolute", "better": "lower", "improve": 226292, "regress": 250114, "sha1": "8894996c"},
 "nacl-lucid_64-newlib-x86_64-pnacl-spec/spec2k/transfersize_perlbmk/opt.stripped.pexe": {"reva": 11165, "revb": 11165, "type": "absolute", "better": "lower", "improve": 672106, "regress": 742856, "sha1": "c687dac0"},
 "nacl-lucid_64-newlib-x86_64-pnacl-spec/spec2k/transfersize_twolf/opt.stripped.pexe": {"reva": 11165, "revb": 11165, "type": "absolute", "better": "lower", "improve": 313819, "regress": 346853, "sha1": "0a1f9e8d"},
 "nacl-lucid_64-newlib-x86_64-pnacl-spec/spec2k/transfersize_vortex/opt.stripped.pexe": {"reva": 11165, "revb": 11165, "type": "absolute", "better": "lower", "improve": 390706, "regress": 431834, "sha1": "6a01bf89"},
 "nacl-lucid_64-newlib-x86_64-pnacl-spec/spec2k/transfersize_vpr/opt.stripped.pexe": {"reva": 11165, "revb": 11165, "type": "absolute", "better": "lower", "improve": 252281, "regress": 278837, "sha1": "9fca42a2"},
 "nacl-lucid_64-newlib-x86_64-spec/spec2k/runtime_ammp/nacl.opt.x8664": {"reva": 10296, "revb": 10303, "type": "absolute", "better": "lower", "improve": 8.949, "regress": 9.9435, "sha1": "9328de7b"},
 "nacl-lucid_64-newlib-x86_64-spec/spec2k/runtime_art/nacl.opt.x8664": {"reva": 10296, "revb": 10303, "type": "absolute", "better": "lower", "improve": 1.2445, "regress": 1.3965, "sha1": "c0c1bf9f"},
 "nacl-lucid_64-newlib-x86_64-spec/spec2k/runtime_bzip2/nacl.opt.x8664": {"reva": 10296, "revb": 10303, "type": "absolute", "better": "lower", "improve": 6.92075, "regress": 7.68075, "sha1": "15763d31"},
 "nacl-lucid_64-newlib-x86_64-spec/spec2k/runtime_crafty/nacl.opt.x8664": {"reva": 10296, "revb": 10303, "type": "absolute", "better": "lower", "improve": 4.465, "regress": 4.96125, "sha1": "fc85402a"},
 "nacl-lucid_64-newlib-x86_64-spec/spec2k/runtime_eon/nacl.opt.x8664": {"reva": 10296, "revb": 10303, "type": "absolute", "better": "lower", "improve": 2.3085, "regress": 2.604, "sha1": "cf310be6"},
 "nacl-lucid_64-newlib-x86_64-spec/spec2k/runtime_equake/nacl.opt.x8664": {"reva": 10296, "revb": 10303, "type": "absolute", "better": "lower", "improve": 4.11825, "regress": 4.6095, "sha1": "629d7758"},
 "nacl-lucid_64-newlib-x86_64-spec/spec2k/runtime_gap/nacl.opt.x8664": {"reva": 10296, "revb": 10303, "type": "absolute", "better": "lower", "improve": 1.387, "regress": 1.5435, "sha1": "65e09f9e"},
 "nacl-lucid_64-newlib-x86_64-spec/spec2k/runtime_gcc/nacl.opt.x8664": {"reva": 11142, "revb": 11143, "type": "absolute", "better": "lower", "improve": 0.85025, "regress": 0.945, "sha1": "5038ff0c"},
 "nacl-lucid_64-newlib-x86_64-spec/spec2k/runtime_gzip/nacl.opt.x8664": {"reva": 10296, "revb": 10303, "type": "absolute", "better": "lower", "improve": 7.8945, "regress": 8.736, "sha1": "6f59e7fe"},
 "nacl-lucid_64-newlib-x86_64-spec/spec2k/runtime_mcf/nacl.opt.x8664": {"reva": 10296, "revb": 10303, "type": "absolute", "better": "lower", "improve": 3.1825, "regress": 3.53325, "sha1": "63e991b1"},
 "nacl-lucid_64-newlib-x86_64-spec/spec2k/runtime_mesa/nacl.opt.x8664": {"reva": 10296, "revb": 10303, "type": "absolute", "better": "lower", "improve": 9.40025, "regress": 10.4265, "sha1": "3c430d2e"},
 "nacl-lucid_64-newlib-x86_64-spec/spec2k/runtime_parser/nacl.opt.x8664": {"reva": 10296, "revb": 10303, "type": "absolute", "better": "lower", "improve": 1.63875, "regress": 1.83225, "sha1": "a3666f86"},
 "nacl-lucid_64-newlib-x86_64-spec/spec2k/runtime_perlbmk/nacl.opt.x8664": {"reva": 10296, "revb": 10303, "type": "absolute", "better": "lower", "improve": 13.775, "regress": 15.27225, "sha1": "25168698"},
 "nacl-lucid_64-newlib-x86_64-spec/spec2k/runtime_twolf/nacl.opt.x8664": {"reva": 10296, "revb": 10303, "type": "absolute", "better": "lower", "improve": 3.15875, "regress": 3.5595, "sha1": "559bd36f"},
 "nacl-lucid_64-newlib-x86_64-spec/spec2k/runtime_vortex/nacl.opt.x8664": {"reva": 10296, "revb": 10303, "type": "absolute", "better": "lower", "improve": 2.89275, "regress": 3.21825, "sha1": "b6274cde"},
 "nacl-lucid_64-newlib-x86_64-spec/spec2k/runtime_vpr/nacl.opt.x8664": {"reva": 10296, "revb": 10303, "type": "absolute", "better": "lower", "improve": 5.4245, "regress": 6.02175, "sha1": "b8c6c905"},
 "nacl-oneiric_32-newlib-arm_hw-pnacl-panda-spec/spec2k/compiletime_ammp/pnacl_translator.opt.hw.arm": {"reva": 11136, "revb": 11137, "type": "absolute", "better": "lower", "improve": 11.7135, "regress": 13.23, "sha1": "a6be8306"},
 "nacl-oneiric_32-newlib-arm_hw-pnacl-panda-spec/spec2k/compiletime_ammp/pnacl_translator_fast.opt.hw.arm": {"reva": 11136, "revb": 11137, "type": "absolute", "better": "lower", "improve": 6.5075, "regress": 7.308, "sha1": "95e33f74"},
 "nacl-oneiric_32-newlib-arm_hw-pnacl-panda-spec/spec2k/compiletime_art/pnacl_translator.opt.hw.arm": {"reva": 11136, "revb": 11137, "type": "absolute", "better": "lower", "improve": 6.669, "regress": 7.8225, "sha1": "a7243dfc"},
 "nacl-oneiric_32-newlib-arm_hw-pnacl-panda-spec/spec2k/compiletime_art/pnacl_translator_fast.opt.hw.arm": {"reva": 11136, "revb": 11137, "type": "absolute", "better": "lower", "improve": 3.7335, "regress": 4.263, "sha1": "914ac2e9"},
 "nacl-oneiric_32-newlib-arm_hw-pnacl-panda-spec/spec2k/compiletime_bzip2/pnacl_translator.opt.hw.arm": {"reva": 11136, "revb": 11137, "type": "absolute", "better": "lower", "improve": 5.4245, "regress": 6.0165, "sha1": "9e335a92"},
 "nacl-oneiric_32-newlib-arm_hw-pnacl-panda-spec/spec2k/compiletime_bzip2/pnacl_translator_fast.opt.hw.arm": {"reva": 11136, "revb": 11137, "type": "absolute", "better": "lower", "improve": 3.135, "regress": 3.5595, "sha1": "eec1c06a"},
 "nacl-oneiric_32-newlib-arm_hw-pnacl-panda-spec/spec2k/compiletime_crafty/pnacl_translator.opt.hw.arm": {"reva": 11136, "revb": 11137, "type": "absolute", "better": "lower", "improve": 14.8675, "regress": 16.863, "sha1": "79aee1fb"},
 "nacl-oneiric_32-newlib-arm_hw-pnacl-panda-spec/spec2k/compiletime_crafty/pnacl_translator_fast.opt.hw.arm": {"reva": 11136, "revb": 11137, "type": "absolute", "better": "lower", "improve": 8.1415, "regress": 9.156, "sha1": "6f760365"},
 "nacl-oneiric_32-newlib-arm_hw-pnacl-panda-spec/spec2k/compiletime_eon/pnacl_translator.opt.hw.arm": {"reva": 11200, "revb": 11201, "type": "absolute", "better": "lower", "improve": 28.443, "regress": 32.025, "sha1": "cef05bc1"},
 "nacl-oneiric_32-newlib-arm_hw-pnacl-panda-spec/spec2k/compiletime_eon/pnacl_translator_fast.opt.hw.arm": {"reva": 11200, "revb": 11201, "type": "absolute", "better": "lower", "improve": 15.561, "regress": 17.346, "sha1": "faeda187"},
 "nacl-oneiric_32-newlib-arm_hw-pnacl-panda-spec/spec2k/compiletime_equake/pnacl_translator.opt.hw.arm": {"reva": 11136, "revb": 11137, "type": "absolute", "better": "lower", "improve": 7.1345, "regress": 7.896, "sha1": "52761577"},
 "nacl-oneiric_32-newlib-arm_hw-pnacl-panda-spec/spec2k/compiletime_equake/pnacl_translator_fast.opt.hw.arm": {"reva": 11136, "revb": 11137, "type": "absolute", "better": "lower", "improve": 3.8855, "regress": 4.347, "sha1": "de5fd930"},
 "nacl-oneiric_32-newlib-arm_hw-pnacl-panda-spec/spec2k/compiletime_gap/pnacl_translator.opt.hw.arm": {"reva": 11136, "revb": 11137, "type": "absolute", "better": "lower", "improve": 25.669, "regress": 28.5285, "sha1": "e736205a"},
 "nacl-oneiric_32-newlib-arm_hw-pnacl-panda-spec/spec2k/compiletime_gap/pnacl_translator_fast.opt.hw.arm": {"reva": 11136, "revb": 11137, "type": "absolute", "better": "lower", "improve": 14.0695, "regress": 15.8445, "sha1": "0b41dfdc"},
 "nacl-oneiric_32-newlib-arm_hw-pnacl-panda-spec/spec2k/compiletime_gcc/pnacl_translator.opt.hw.arm": {"reva": 11136, "revb": 11137, "type": "absolute", "better": "lower", "improve": 69.8345, "regress": 77.28, "sha1": "1d650e75"},
 "nacl-oneiric_32-newlib-arm_hw-pnacl-panda-spec/spec2k/compiletime_gcc/pnacl_translator_fast.opt.hw.arm": {"reva": 11136, "revb": 11137, "type": "absolute", "better": "lower", "improve": 37.3635, "regress": 41.433, "sha1": "cabb01fd"},
 "nacl-oneiric_32-newlib-arm_hw-pnacl-panda-spec/spec2k/compiletime_gzip/pnacl_translator.opt.hw.arm": {"reva": 11136, "revb": 11137, "type": "absolute", "better": "lower", "improve": 5.624, "regress": 6.3735, "sha1": "3b172387"},
 "nacl-oneiric_32-newlib-arm_hw-pnacl-panda-spec/spec2k/compiletime_gzip/pnacl_translator_fast.opt.hw.arm": {"reva": 11136, "revb": 11137, "type": "absolute", "better": "lower", "improve": 3.2015, "regress": 3.5805, "sha1": "4610c585"},
 "nacl-oneiric_32-newlib-arm_hw-pnacl-panda-spec/spec2k/compiletime_mcf/pnacl_translator.opt.hw.arm": {"reva": 11136, "revb": 11137, "type": "absolute", "better": "lower", "improve": 6.9445, "regress": 7.707, "sha1": "a17999cc"},
 "nacl-oneiric_32-newlib-arm_hw-pnacl-panda-spec/spec2k/compiletime_mcf/pnacl_translator_fast.opt.hw.arm": {"reva": 11136, "revb": 11137, "type": "absolute", "better": "lower", "improve": 3.6955, "regress": 4.326, "sha1": "c40ed1f8"},
 "nacl-oneiric_32-newlib-arm_hw-pnacl-panda-spec/spec2k/compiletime_mesa/pnacl_translator.opt.hw.arm": {"reva": 11136, "revb": 11137, "type": "absolute", "better": "lower", "improve": 26.4765, "regress": 29.4105, "sha1": "b790e823"},
 "nacl-oneiric_32-newlib-arm_hw-pnacl-panda-spec/spec2k/compiletime_mesa/pnacl_translator_fast.opt.hw.arm": {"reva": 11136, "revb": 11137, "type": "absolute", "better": "lower", "improve": 13.585, "regress": 15.267, "sha1": "2f09c879"},
 "nacl-oneiric_32-newlib-arm_hw-pnacl-panda-spec/spec2k/compiletime_parser/pnacl_translator.opt.hw.arm": {"reva": 11136, "revb": 11137, "type": "absolute", "better": "lower", "improve": 10.9725, "regress": 12.621, "sha1": "5a13e753"},
 "nacl-oneiric_32-newlib-arm_hw-pnacl-panda-spec/spec2k/compiletime_parser/pnacl_translator_fast.opt.hw.arm": {"reva": 11136, "revb": 11137, "type": "absolute", "better": "lower", "improve": 6.1465, "regress": 6.8355, "sha1": "753b479e"},
 "nacl-oneiric_32-newlib-arm_hw-pnacl-panda-spec/spec2k/compiletime_perlbmk/pnacl_translator.opt.hw.arm": {"reva": 11136, "revb": 11137, "type": "absolute", "better": "lower", "improve": 33.858, "regress": 37.464, "sha1": "f9e64946"},
 "nacl-oneiric_32-newlib-arm_hw-pnacl-panda-spec/spec2k/compiletime_perlbmk/pnacl_translator_fast.opt.hw.arm": {"reva": 11136, "revb": 11137, "type": "absolute", "better": "lower", "improve": 17.6605, "regress": 19.6875, "sha1": "9bdd07b0"},
 "nacl-oneiric_32-newlib-arm_hw-pnacl-panda-spec/spec2k/compiletime_twolf/pnacl_translator.opt.hw.arm": {"reva": 11136, "revb": 11137, "type": "absolute", "better": "lower", "improve": 16.4065, "regress": 18.249, "sha1": "ccd3f4d5"},
 "nacl-oneiric_32-newlib-arm_hw-pnacl-panda-spec/spec2k/compiletime_twolf/pnacl_translator_fast.opt.hw.arm": {"reva": 11136, "revb": 11137, "type": "absolute", "better": "lower", "improve": 8.227, "regress": 9.219, "sha1": "f25f693f"},
 "nacl-oneiric_32-newlib-arm_hw-pnacl-panda-spec/spec2k/compiletime_vortex/pnacl_translator.opt.hw.arm": {"reva": 11136, "revb": 11137, "type": "absolute", "better": "lower", "improve": 17.575, "regress": 19.614, "sha1": "be093e58"},
 "nacl-oneiric_32-newlib-arm_hw-pnacl-panda-spec/spec2k/compiletime_vortex/pnacl_translator_fast.opt.hw.arm": {"reva": 11136, "revb": 11137, "type": "absolute", "better": "lower", "improve": 9.766, "regress": 10.9095, "sha1": "fcb42f70"},
 "nacl-oneiric_32-newlib-arm_hw-pnacl-panda-spec/spec2k/compiletime_vpr/pnacl_translator.opt.hw.arm": {"reva": 11136, "revb": 11137, "type": "absolute", "better": "lower", "improve": 11.5805, "regress": 12.831, "sha1": "1c0dd890"},
 "nacl-oneiric_32-newlib-arm_hw-pnacl-panda-spec/spec2k/compiletime_vpr/pnacl_translator_fast.opt.hw.arm": {"reva": 11136, "revb": 11137, "type": "absolute", "better": "lower", "improve": 6.5075, "regress": 7.245, "sha1": "0ce36a16"},
 "nacl-oneiric_32-newlib-arm_hw-pnacl-panda-spec/spec2k/runtime_ammp/pnacl_translator.opt.hw.arm": {"reva": 11101, "revb": 11111, "type": "absolute", "better": "lower", "improve": 122.2365, "regress": 147.9765, "sha1": "3ec886d0"},
 "nacl-oneiric_32-newlib-arm_hw-pnacl-panda-spec/spec2k/runtime_ammp/pnacl_translator_fast.opt.hw.arm": {"reva": 11101, "revb": 11111, "type": "absolute", "better": "lower", "improve": 171.266, "regress": 194.25, "sha1": "b44fcb2f"},
 "nacl-oneiric_32-newlib-arm_hw-pnacl-panda-spec/spec2k/runtime_art/pnacl_translator.opt.hw.arm": {"reva": 10116, "revb": 10160, "type": "absolute", "better": "lower", "improve": 20.349, "regress": 27.111, "sha1": "58ffb308"},
 "nacl-oneiric_32-newlib-arm_hw-pnacl-panda-spec/spec2k/runtime_art/pnacl_translator_fast.opt.hw.arm": {"reva": 11101, "revb": 11111, "type": "absolute", "better": "lower", "improve": 27.075, "regress": 38.1675, "sha1": "cdd8a57a"},
 "nacl-oneiric_32-newlib-arm_hw-pnacl-panda-spec/spec2k/runtime_bzip2/pnacl_translator.opt.hw.arm": {"reva": 10116, "revb": 10160, "type": "absolute", "better": "lower", "improve": 75.449, "regress": 87.0555, "sha1": "62c3aa84"},
 "nacl-oneiric_32-newlib-arm_hw-pnacl-panda-spec/spec2k/runtime_bzip2/pnacl_translator_fast.opt.hw.arm": {"reva": 10992, "revb": 11029, "type": "absolute", "better": "lower", "improve": 130.473, "regress": 147.3255, "sha1": "5eaf168a"},
 "nacl-oneiric_32-newlib-arm_hw-pnacl-panda-spec/spec2k/runtime_crafty/pnacl_translator.opt.hw.arm": {"reva": 10116, "revb": 10160, "type": "absolute", "better": "lower", "improve": 42.332, "regress": 47.6175, "sha1": "38974d9c"},
 "nacl-oneiric_32-newlib-arm_hw-pnacl-panda-spec/spec2k/runtime_crafty/pnacl_translator_fast.opt.hw.arm": {"reva": 10992, "revb": 11029, "type": "absolute", "better": "lower", "improve": 76.7125, "regress": 85.932, "sha1": "6b87a389"},
 "nacl-oneiric_32-newlib-arm_hw-pnacl-panda-spec/spec2k/runtime_eon/pnacl_translator.opt.hw.arm": {"reva": 10386, "revb": 10430, "type": "absolute", "better": "lower", "improve": 16.1785, "regress": 18.1755, "sha1": "dfcedb2b"},
 "nacl-oneiric_32-newlib-arm_hw-pnacl-panda-spec/spec2k/runtime_eon/pnacl_translator_fast.opt.hw.arm": {"reva": 11101, "revb": 11111, "type": "absolute", "better": "lower", "improve": 27.607, "regress": 30.933, "sha1": "daeb1916"},
 "nacl-oneiric_32-newlib-arm_hw-pnacl-panda-spec/spec2k/runtime_equake/pnacl_translator.opt.hw.arm": {"reva": 10116, "revb": 10160, "type": "absolute", "better": "lower", "improve": 68.7515, "regress": 82.6245, "sha1": "b009ce72"},
 "nacl-oneiric_32-newlib-arm_hw-pnacl-panda-spec/spec2k/runtime_equake/pnacl_translator_fast.opt.hw.arm": {"reva": 10992, "revb": 11029, "type": "absolute", "better": "lower", "improve": 79.0305, "regress": 96.5265, "sha1": "df2ab34c"},
 "nacl-oneiric_32-newlib-arm_hw-pnacl-panda-spec/spec2k/runtime_gap/pnacl_translator.opt.hw.arm": {"reva": 10116, "revb": 10160, "type": "absolute", "better": "lower", "improve": 11.4285, "regress": 12.7785, "sha1": "9e2f5f26"},
 "nacl-oneiric_32-newlib-arm_hw-pnacl-panda-spec/spec2k/runtime_gap/pnacl_translator_fast.opt.hw.arm": {"reva": 10992, "revb": 11029, "type": "absolute", "better": "lower", "improve": 18.9335, "regress": 21.3045, "sha1": "0c3724a4"},
 "nacl-oneiric_32-newlib-arm_hw-pnacl-panda-spec/spec2k/runtime_gcc/pnacl_translator.opt.hw.arm": {"reva": 10116, "revb": 10160, "type": "absolute", "better": "lower", "improve": 6.783, "regress": 7.623, "sha1": "96cf5211"},
 "nacl-oneiric_32-newlib-arm_hw-pnacl-panda-spec/spec2k/runtime_gcc/pnacl_translator_fast.opt.hw.arm": {"reva": 10992, "revb": 11029, "type": "absolute", "better": "lower", "improve": 12.521, "regress": 14.0175, "sha1": "89b4746d"},
 "nacl-oneiric_32-newlib-arm_hw-pnacl-panda-spec/spec2k/runtime_gzip/pnacl_translator.opt.hw.arm": {"reva": 10116, "revb": 10160, "type": "absolute", "better": "lower", "improve": 65.018, "regress": 79.611, "sha1": "3455f8a1"},
 "nacl-oneiric_32-newlib-arm_hw-pnacl-panda-spec/spec2k/runtime_gzip/pnacl_translator_fast.opt.hw.arm": {"reva": 10992, "revb": 11029, "type": "absolute", "better": "lower", "improve": 115.539, "regress": 128.0895, "sha1": "a5dcf8a6"},
 "nacl-oneiric_32-newlib-arm_hw-pnacl-panda-spec/spec2k/runtime_mcf/pnacl_translator.opt.hw.arm": {"reva": 10116, "revb": 10160, "type": "absolute", "better": "lower", "improve": 62.358, "regress": 70.518, "sha1": "a294de6e"},
 "nacl-oneiric_32-newlib-arm_hw-pnacl-panda-spec/spec2k/runtime_mcf/pnacl_translator_fast.opt.hw.arm": {"reva": 10992, "revb": 11029, "type": "absolute", "better": "lower", "improve": 70.0055, "regress": 86.0055, "sha1": "27a84741"},
 "nacl-oneiric_32-newlib-arm_hw-pnacl-panda-spec/spec2k/runtime_mesa/pnacl_translator.opt.hw.arm": {"reva": 11101, "revb": 11111, "type": "absolute", "better": "lower", "improve": 95.152, "regress": 110.04, "sha1": "6a37ecf2"},
 "nacl-oneiric_32-newlib-arm_hw-pnacl-panda-spec/spec2k/runtime_mesa/pnacl_translator_fast.opt.hw.arm": {"reva": 11101, "revb": 11111, "type": "absolute", "better": "lower", "improve": 142.956, "regress": 158.5395, "sha1": "1bd9d096"},
 "nacl-oneiric_32-newlib-arm_hw-pnacl-panda-spec/spec2k/runtime_parser/pnacl_translator.opt.hw.arm": {"reva": 10116, "revb": 10160, "type": "absolute", "better": "lower", "improve": 18.164, "regress": 20.433, "sha1": "1e65dc9e"},
 "nacl-oneiric_32-newlib-arm_hw-pnacl-panda-spec/spec2k/runtime_parser/pnacl_translator_fast.opt.hw.arm": {"reva": 10992, "revb": 11029, "type": "absolute", "better": "lower", "improve": 25.042, "regress": 28.1505, "sha1": "1872d56a"},
 "nacl-oneiric_32-newlib-arm_hw-pnacl-panda-spec/spec2k/runtime_perlbmk/pnacl_translator.opt.hw.arm": {"reva": 10116, "revb": 10160, "type": "absolute", "better": "lower", "improve": 104.6615, "regress": 118.041, "sha1": "6c2fb5fb"},
 "nacl-oneiric_32-newlib-arm_hw-pnacl-panda-spec/spec2k/runtime_perlbmk/pnacl_translator_fast.opt.hw.arm": {"reva": 10992, "revb": 11029, "type": "absolute", "better": "lower", "improve": 188.176, "regress": 210.609, "sha1": "ec9a6c61"},
 "nacl-oneiric_32-newlib-arm_hw-pnacl-panda-spec/spec2k/runtime_twolf/pnacl_translator.opt.hw.arm": {"reva": 11101, "revb": 11111, "type": "absolute", "better": "lower", "improve": 32.49, "regress": 39.7215, "sha1": "9595db1d"},
 "nacl-oneiric_32-newlib-arm_hw-pnacl-panda-spec/spec2k/runtime_twolf/pnacl_translator_fast.opt.hw.arm": {"reva": 10992, "revb": 11029, "type": "absolute", "better": "lower", "improve": 46.778, "regress": 54.7995, "sha1": "842375b5"},
 "nacl-oneiric_32-newlib-arm_hw-pnacl-panda-spec/spec2k/runtime_vortex/pnacl_translator.opt.hw.arm": {"reva": 10116, "revb": 10160, "type": "absolute", "better": "lower", "improve": 16.397, "regress": 18.4275, "sha1": "898428c1"},
 "nacl-oneiric_32-newlib-arm_hw-pnacl-panda-spec/spec2k/runtime_vortex/pnacl_translator_fast.opt.hw.arm": {"reva": 10992, "revb": 11029, "type": "absolute", "better": "lower", "improve": 27.0085, "regress": 30.177, "sha1": "c31bf32b"},
 "nacl-oneiric_32-newlib-arm_hw-pnacl-panda-spec/spec2k/runtime_vpr/pnacl_translator.opt.hw.arm": {"reva": 10116, "revb": 10160, "type": "absolute", "better": "lower", "improve": 51.11, "regress": 57.1725, "sha1": "50632a79"},
 "nacl-oneiric_32-newlib-arm_hw-pnacl-panda-spec/spec2k/runtime_vpr/pnacl_translator_fast.opt.hw.arm": {"reva": 11101, "revb": 11111, "type": "absolute", "better": "lower", "improve": 73.416, "regress": 81.8265, "sha1": "5353f7e2"},
 "nacl-toolchain-linux-pnacl-x86_64/pnacl-tools/ld_armv7_size/total": {"reva": 10101, "revb": 10102, "type": "absolute", "better": "lower", "improve": 2224808, "regress": 2461830, "sha1": "e6711452"},
 "nacl-toolchain-linux-pnacl-x86_64/pnacl-tools/ld_i686_size/total": {"reva": 10101, "revb": 10102, "type": "absolute", "better": "lower", "improve": 1842350, "regress": 2038231, "sha1": "6f8e350f"},
 "nacl-toolchain-linux-pnacl-x86_64/pnacl-tools/ld_x86_64_size/total": {"reva": 10101, "revb": 10102, "type": "absolute", "better": "lower", "improve": 2132670, "regress": 2359145, "sha1": "c863a612"},
 "nacl-toolchain-linux-pnacl-x86_64/pnacl-tools/llc_armv7_size/total": {"reva": 11101, "revb": 11111, "type": "absolute", "better": "lower", "improve": 8647067, "regress": 9557924, "sha1": "b91c7a4c"},
 "nacl-toolchain-linux-pnacl-x86_64/pnacl-tools/llc_i686_size/total": {"reva": 11101, "revb": 11111, "type": "absolute", "better": "lower", "improve": 7811283, "regress": 8634125, "sha1": "c267ed11"},
 "nacl-toolchain-linux-pnacl-x86_64/pnacl-tools/llc_x86_64_size/total": {"reva": 11101, "revb": 11111, "type": "absolute", "better": "lower", "improve": 8789240, "regress": 9715058, "sha1": "755eaf9b"},
 "load": true
}
